thermal_indicators
…
heatwave_runs %>%
  arrange(city, desc(duration_days))

# A tibble: 28 × 8
   city     run_id has_heatwave start_date end_date   duration_days max_t2m
   <chr>     <int> <lgl>        <date>     <date>             <int>   <dbl>
 1 Augsburg      7 TRUE         2025-06-29 2025-07-03             5    26.5
 2 Augsburg     13 TRUE         2025-12-08 2025-12-11             4    10  
 3 Augsburg      5 TRUE         2025-05-01 2025-05-03             3    18.4
 4 Augsburg      9 TRUE         2025-08-13 2025-08-15             3    25.6
 5 Augsburg      1 TRUE         2025-02-25 2025-02-25             1     7.8
 6 Augsburg      3 TRUE         2025-04-16 2025-04-16             1    14.3
 7 Augsburg     11 TRUE         2025-09-21 2025-09-21             1    18.8
 8 Bologna       5 TRUE         2025-06-12 2025-06-15             4    29.5
 9 Bologna       9 TRUE         2025-07-02 2025-07-04             3    29.5
10 Bologna       1 TRUE         2025-01-27 2025-01-28             2    13  
# ℹ 18 more rows
# ℹ 1 more variable: max_utci <dbl>
…
